<?xml version="1.0" encoding="utf-8"?>
<!-- Generator: Adobe Illustrator 15.1.0, SVG Export Plug-In . SVG Version: 6.00 Build 0)  -->
<!DOCTYPE svg PUBLIC "-//W3C//DTD SVG 1.1//EN" "http://www.w3.org/Graphics/SVG/1.1/DTD/svg11.dtd">
<svg version="1.1" id="Laag_1" xmlns="http://www.w3.org/2000/svg" xmlns:xlink="http://www.w3.org/1999/xlink" x="0px" y="0px"
	 width="322px" height="100px" viewBox="0 0 322 100" enable-background="new 0 0 322 100" xml:space="preserve">
<g>
	<g>
		<path fill="#006A5D" d="M101.257,55.32l1.123-3.608c2.359,1.408,4.905,2.107,7.638,2.107c2.062,0,3.695-0.474,4.896-1.427
			c1.205-0.954,1.804-2.227,1.804-3.821c0-1.467-0.478-2.665-1.427-3.597c-0.953-0.927-2.525-1.76-4.71-2.494
			c-3-1.032-5.194-2.271-6.581-3.726c-1.394-1.452-2.088-3.208-2.088-5.271c0-2.514,0.984-4.588,2.954-6.218
			c1.969-1.633,4.514-2.449,7.637-2.449c2.997,0,5.434,0.53,7.308,1.592l-1.17,3.514c-1.812-1.032-3.905-1.545-6.28-1.545
			c-1.905,0-3.39,0.449-4.45,1.347c-1.063,0.897-1.595,1.994-1.595,3.29c0,1.312,0.454,2.4,1.361,3.259
			c0.906,0.857,2.609,1.742,5.107,2.647c2.997,1.092,5.139,2.369,6.419,3.829c1.279,1.464,1.919,3.293,1.919,5.495
			c0,2.701-1.004,4.909-3.02,6.618c-2.016,1.711-4.821,2.565-8.411,2.565c-1.5,0-3.038-0.195-4.615-0.584
			C103.498,56.451,102.224,55.944,101.257,55.32z"/>
		<path fill="#006A5D" d="M131.711,27.346c0,0.783-0.257,1.438-0.773,1.97c-0.515,0.53-1.196,0.797-2.038,0.797
			c-0.813,0-1.477-0.267-1.992-0.797c-0.515-0.532-0.773-1.187-0.773-1.97c0-0.764,0.261-1.408,0.785-1.932
			c0.524-0.522,1.199-0.785,2.026-0.785c0.796,0,1.457,0.262,1.98,0.785C131.451,25.938,131.711,26.583,131.711,27.346z
			 M131.104,56.914h-4.36V34.235h4.36V56.914z"/>
		<path fill="#006A5D" d="M138.082,56.914V40.467c0-2.516-0.061-4.592-0.186-6.231h3.796l0.327,3.701
			c1.685-2.811,4.155-4.218,7.403-4.218c1.499,0,2.831,0.409,3.996,1.221c1.163,0.812,2.049,1.937,2.658,3.373
			c1.859-3.061,4.454-4.594,7.778-4.594c2.248,0,4.102,0.853,5.552,2.556c1.454,1.703,2.181,4.192,2.181,7.473v13.167h-4.265V44.262
			c0-2.25-0.436-3.973-1.301-5.177c-0.868-1.203-2.104-1.804-3.714-1.804c-1.39,0-2.626,0.534-3.712,1.605
			c-1.086,1.069-1.627,2.439-1.627,4.111v13.917h-4.265V43.511c0-1.92-0.432-3.438-1.288-4.555c-0.86-1.115-2.039-1.676-3.539-1.676
			c-1.454,0-2.735,0.608-3.854,1.828c-1.117,1.216-1.676,2.639-1.676,4.265v13.541H138.082z"/>
		<path fill="#006A5D" d="M178.424,66.188V41.686c0-3.046-0.06-5.53-0.186-7.45h3.89l0.234,3.937h0.093
			c1.89-2.966,4.701-4.454,8.434-4.454c2.843,0,5.209,1.075,7.099,3.222c1.893,2.149,2.835,4.901,2.835,8.259
			c0,3.734-1.019,6.704-3.058,8.915c-2.039,2.21-4.58,3.315-7.625,3.315c-1.547,0-2.963-0.311-4.251-0.936
			c-1.292-0.626-2.293-1.517-3.012-2.674h-0.092v12.368H178.424z M182.785,43.887v3.656c0,1.828,0.634,3.362,1.907,4.6
			c1.271,1.244,2.809,1.864,4.604,1.864c2.186,0,3.919-0.775,5.2-2.329c1.281-1.556,1.922-3.652,1.922-6.292
			c0-2.375-0.632-4.333-1.899-5.879c-1.263-1.545-2.944-2.319-5.035-2.319c-1.344,0-2.577,0.387-3.704,1.16
			c-1.122,0.773-1.903,1.717-2.342,2.834C183.002,42.298,182.785,43.199,182.785,43.887z"/>
		<path fill="#006A5D" d="M225.047,46.464h-16.448c0.063,2.453,0.821,4.331,2.272,5.633c1.454,1.308,3.337,1.959,5.646,1.959
			c2.516,0,4.717-0.393,6.606-1.174l0.751,3.049c-2.231,0.999-4.873,1.498-7.92,1.498c-3.528,0-6.34-1.048-8.434-3.139
			c-2.094-2.094-3.138-4.873-3.138-8.342c0-3.467,1.001-6.373,3.011-8.714c2.006-2.344,4.705-3.516,8.092-3.516
			c3.124,0,5.522,1.044,7.194,3.129c1.672,2.085,2.505,4.634,2.505,7.65C225.186,45.356,225.14,46.01,225.047,46.464z
			 M208.646,43.324h12.325c0-1.951-0.503-3.524-1.513-4.72c-1.007-1.194-2.438-1.791-4.299-1.791c-1.766,0-3.226,0.597-4.38,1.791
			C209.625,39.8,208.912,41.373,208.646,43.324z"/>
		<path fill="#006A5D" d="M230.435,56.914V23.552h4.357v33.362H230.435z"/>
		<path fill="#006A5D" d="M238.868,34.235h4.732l4.826,13.354c0.547,1.499,1.123,3.187,1.734,5.06
			c0.421-1.421,1.07-3.351,1.944-5.787l4.52-12.626h4.638l-9.229,22.679h-4.261L238.868,34.235z"/>
		<path fill="#006A5D" d="M283.615,46.464H267.17c0.061,2.453,0.818,4.331,2.273,5.633c1.453,1.308,3.332,1.959,5.645,1.959
			c2.514,0,4.717-0.393,6.607-1.174l0.75,3.049c-2.234,0.999-4.873,1.498-7.919,1.498c-3.531,0-6.343-1.048-8.437-3.139
			c-2.091-2.094-3.138-4.873-3.138-8.342c0-3.467,1.003-6.373,3.011-8.714c2.006-2.344,4.705-3.516,8.095-3.516
			c3.124,0,5.521,1.044,7.191,3.129c1.672,2.085,2.508,4.634,2.508,7.65C283.757,45.356,283.71,46.01,283.615,46.464z
			 M267.217,43.324h12.322c0-1.951-0.5-3.524-1.51-4.72c-1.01-1.194-2.441-1.791-4.299-1.791c-1.766,0-3.226,0.597-4.383,1.791
			C268.192,39.8,267.482,41.373,267.217,43.324z"/>
		<path fill="#006A5D" d="M289.003,56.914V23.552h4.357v33.362H289.003z"/>
		<path fill="#006A5D" d="M316.366,23.552h4.36v27.41c0,2.531,0.061,4.515,0.186,5.952h-3.888l-0.328-4.032
			c-0.75,1.438-1.83,2.557-3.234,3.352c-1.406,0.794-2.998,1.195-4.78,1.195c-2.871,0-5.269-1.082-7.191-3.247
			c-1.919-2.162-2.881-4.907-2.881-8.233c0-3.607,1.011-6.549,3.034-8.821c2.023-2.271,4.525-3.409,7.507-3.409
			c1.594,0,3.021,0.313,4.277,0.938c1.257,0.625,2.238,1.47,2.938,2.53V23.552z M316.366,47.167V43.56
			c0-1.922-0.62-3.471-1.861-4.65c-1.243-1.181-2.73-1.771-4.462-1.771c-2.111,0-3.808,0.789-5.096,2.368
			c-1.289,1.578-1.934,3.629-1.934,6.162c0,2.374,0.607,4.34,1.826,5.902c1.219,1.563,2.922,2.346,5.107,2.346
			c1.671,0,3.157-0.614,4.465-1.842C315.715,50.848,316.366,49.212,316.366,47.167z"/>
	</g>
	<g>
		<path fill-rule="evenodd" clip-rule="evenodd" fill="#006A5D" d="M82.918,42.096c0,4.615-3.747,8.356-8.358,8.356
			c-4.618,0-8.359-3.741-8.359-8.356c0-4.617,3.741-8.356,8.359-8.356C79.171,33.74,82.918,37.479,82.918,42.096z"/>
		<path fill-rule="evenodd" clip-rule="evenodd" fill="#002E5F" d="M0.4,7.441c0,10.681,6.824,24.663,11.225,31.244
			c2.594,3.887,16.445,22.088,19.789,22.982l3.984-13.678c-2.081-1.396-10.921-12.369-13.089-15.081
			c-4.549-5.682-7.551-10.346-11.106-17.062C4.94,4.002,10.019,2.559,19,9.331c2.046,1.546,14.994,12.96,15.333,13.051
			C31.773,17.55,13.023,0.4,5.736,0.4h-0.64C1.851,0.4,0.4,4.153,0.4,7.441L0.4,7.441z"/>
		<path fill-rule="evenodd" clip-rule="evenodd" fill="#009486" d="M27.928,11.925c2.487-0.208,10.73-3.376,13.909-4.236
			c4.004-1.079,10.742-2.594,15.542-2.594c14.661,0,0.712,10.752-2.73,13.059c-3.373,2.261-15.403,8.614-19.462,9.563
			c0.281,1.062,3.098,3.397,3.999,4.332c1.972,2.046,2.224,1.384,5.362,0.121c4.134-1.668,7.73-3.186,11.407-5.449
			C61.148,23.518,71.25,16.067,71.25,8.723V8.51c0-5.19-5.803-6.403-11.312-6.403h-0.211C50.749,2.107,32.358,8.072,27.928,11.925
			L27.928,11.925z"/>
		<path fill-rule="evenodd" clip-rule="evenodd" fill="#006A5D" d="M34.333,37.533c2.788,4.163,15.504,14.016,20.012,18.401
			c3.828,3.729,15.84,16.104,15.84,22.357c0,2.701-1.963,6.616-4.482,6.616h-1.065c-8.477,0-26.599-11.737-32.525-15.704
			C28.791,66.981,4.645,48.678,4.454,48.628c0,15.885-4.777,11.499,6.303,20.8c5.313,4.458,10.611,8.659,16.445,12.577
			c8.553,5.747,27.065,17.626,40.421,17.626h1.491c7.276,0,12.38-4.256,12.38-11.311c0-9.853-15.75-24-21.344-29.636
			C57.414,55.928,36.501,38.111,34.333,37.533L34.333,37.533z"/>
	</g>
	<g>
		<path fill="#006A5D" d="M237.104,18.855c0.188,0.564,0.529,1.003,1.022,1.319c0.496,0.315,1.094,0.47,1.801,0.47
			c1.104,0,1.992-0.366,2.657-1.101c0.667-0.734,1.004-1.716,1.004-2.947v-0.254c-0.475,0.64-1.009,1.125-1.606,1.451
			c-0.601,0.326-1.263,0.491-1.986,0.491c-1.456,0-2.67-0.489-3.633-1.463c-0.965-0.973-1.446-2.184-1.446-3.637
			c0-1.429,0.476-2.627,1.431-3.6c0.95-0.968,2.13-1.453,3.533-1.453c0.819,0,1.524,0.147,2.121,0.441
			c0.597,0.294,1.126,0.753,1.587,1.376V8.362h1.216v8.095c0,1.693-0.427,3.016-1.274,3.968c-0.85,0.953-2.021,1.43-3.518,1.43
			c-1.097,0-2.042-0.274-2.828-0.816c-0.789-0.542-1.296-1.271-1.528-2.183H237.104z M236.239,13.133
			c0,1.134,0.359,2.083,1.081,2.847c0.721,0.764,1.587,1.148,2.607,1.148c0.956,0,1.805-0.384,2.541-1.152
			c0.731-0.769,1.102-1.668,1.102-2.701c0-1.109-0.364-2.051-1.085-2.834c-0.724-0.78-1.576-1.171-2.558-1.171
			c-1.012,0-1.881,0.372-2.602,1.116C236.602,11.129,236.239,12.045,236.239,13.133z"/>
		<path fill="#006A5D" d="M256.248,13.607h-8.756c0.078,1.056,0.459,1.909,1.146,2.561c0.688,0.652,1.548,0.976,2.578,0.976
			c0.729,0,1.383-0.186,1.964-0.565c0.582-0.378,1.033-0.903,1.349-1.576h1.41c-0.445,1.073-1.071,1.896-1.881,2.472
			c-0.806,0.573-1.745,0.861-2.808,0.861c-1.413,0-2.606-0.502-3.58-1.508c-0.977-1.005-1.464-2.215-1.464-3.624
			c0-1.479,0.477-2.698,1.432-3.66c0.954-0.967,2.177-1.448,3.665-1.448c1.458,0,2.646,0.502,3.567,1.504
			c0.92,1.005,1.377,2.309,1.377,3.917V13.607z M254.874,12.522c-0.235-1.08-0.665-1.889-1.295-2.435
			c-0.632-0.543-1.449-0.818-2.46-0.818c-0.941,0-1.737,0.293-2.392,0.878c-0.652,0.587-1.052,1.378-1.198,2.375H254.874z"/>
		<path fill="#006A5D" d="M265.3,9.876c0.394-0.558,0.882-0.982,1.468-1.273s1.239-0.437,1.96-0.437
			c1.318,0,2.277,0.395,2.878,1.187c0.597,0.792,0.898,2.063,0.898,3.813v4.896h-1.188v-5.15c0-1.283-0.214-2.195-0.638-2.74
			c-0.423-0.541-1.114-0.814-2.071-0.814c-0.553,0-1.038,0.112-1.461,0.339c-0.418,0.228-0.754,0.551-0.998,0.973
			c-0.15,0.266-0.253,0.566-0.319,0.906c-0.066,0.337-0.097,0.926-0.097,1.767v4.719h-1.176V12.63c0-1.118-0.224-1.942-0.677-2.474
			c-0.453-0.533-1.146-0.798-2.082-0.798c-0.565,0-1.059,0.112-1.485,0.339c-0.427,0.228-0.763,0.551-1.01,0.973
			c-0.153,0.266-0.26,0.566-0.322,0.906c-0.063,0.337-0.091,0.926-0.091,1.767v4.719h-1.229v-9.7h1.229v1.102
			c0.37-0.429,0.806-0.752,1.31-0.971c0.502-0.218,1.07-0.326,1.706-0.326c0.734,0,1.406,0.154,2.012,0.463
			C264.519,8.938,264.981,9.356,265.3,9.876z"/>
		<path fill="#006A5D" d="M284.014,13.607h-8.759c0.077,1.056,0.459,1.909,1.145,2.561c0.692,0.652,1.548,0.976,2.578,0.976
			c0.729,0,1.385-0.186,1.967-0.565c0.581-0.378,1.031-0.903,1.351-1.576h1.409c-0.447,1.073-1.077,1.896-1.884,2.472
			c-0.806,0.573-1.746,0.861-2.808,0.861c-1.412,0-2.607-0.502-3.58-1.508c-0.976-1.005-1.466-2.215-1.466-3.624
			c0-1.479,0.48-2.698,1.434-3.66c0.957-0.967,2.177-1.448,3.664-1.448c1.458,0,2.646,0.502,3.569,1.504
			c0.918,1.005,1.38,2.309,1.38,3.917V13.607z M282.637,12.522c-0.235-1.08-0.667-1.889-1.294-2.435
			c-0.63-0.543-1.451-0.818-2.462-0.818c-0.942,0-1.737,0.293-2.393,0.878c-0.65,0.587-1.05,1.378-1.196,2.375H282.637z"/>
		<path fill="#006A5D" d="M294.957,13.607H286.2c0.076,1.056,0.459,1.909,1.147,2.561c0.687,0.652,1.546,0.976,2.576,0.976
			c0.727,0,1.383-0.186,1.963-0.565c0.583-0.378,1.035-0.903,1.35-1.576h1.413c-0.448,1.073-1.074,1.896-1.883,2.472
			c-0.808,0.573-1.746,0.861-2.81,0.861c-1.412,0-2.607-0.502-3.58-1.508c-0.976-1.005-1.464-2.215-1.464-3.624
			c0-1.479,0.477-2.698,1.434-3.66c0.955-0.967,2.175-1.448,3.663-1.448c1.457,0,2.646,0.502,3.568,1.504
			c0.919,1.005,1.379,2.309,1.379,3.917V13.607z M293.581,12.522c-0.235-1.08-0.666-1.889-1.299-2.435
			c-0.629-0.543-1.446-0.818-2.456-0.818c-0.942,0-1.737,0.293-2.393,0.878c-0.651,0.587-1.051,1.378-1.197,2.375H293.581z"/>
		<path fill="#006A5D" d="M296.387,8.362h1.208v1.102c0.382-0.44,0.824-0.769,1.327-0.98c0.502-0.211,1.075-0.317,1.726-0.317
			c0.708,0,1.343,0.134,1.898,0.397c0.557,0.267,0.996,0.643,1.32,1.136c0.221,0.349,0.38,0.757,0.479,1.223
			c0.097,0.469,0.146,1.157,0.146,2.069v5.07h-1.227V12.63c0-1.148-0.222-1.979-0.658-2.497c-0.438-0.517-1.14-0.776-2.104-0.776
			c-0.563,0-1.059,0.112-1.484,0.339c-0.427,0.228-0.764,0.551-1.01,0.973c-0.152,0.266-0.259,0.566-0.323,0.906
			c-0.062,0.337-0.091,0.926-0.091,1.767v4.719h-1.208V8.362z"/>
		<path fill="#006A5D" d="M307.311,18.062v-8.45h-1.84v-1.25h1.84V5.221h1.246v3.141h1.844v1.25h-1.844v8.45H307.311z"/>
		<path fill="#006A5D" d="M320.912,13.607h-8.757c0.074,1.056,0.456,1.909,1.146,2.561c0.688,0.652,1.547,0.976,2.575,0.976
			c0.729,0,1.387-0.186,1.968-0.565c0.579-0.378,1.029-0.903,1.349-1.576h1.412c-0.447,1.073-1.075,1.896-1.886,2.472
			c-0.809,0.573-1.743,0.861-2.809,0.861c-1.41,0-2.603-0.502-3.58-1.508c-0.978-1.005-1.465-2.215-1.465-3.624
			c0-1.479,0.479-2.698,1.436-3.66c0.953-0.967,2.178-1.448,3.66-1.448c1.463,0,2.65,0.502,3.57,1.504
			c0.919,1.005,1.381,2.309,1.381,3.917V13.607z M319.537,12.522c-0.235-1.08-0.67-1.889-1.299-2.435
			c-0.627-0.543-1.449-0.818-2.46-0.818c-0.939,0-1.738,0.293-2.389,0.878c-0.651,0.587-1.054,1.378-1.2,2.375H319.537z"/>
	</g>
</g>
</svg>
